<svg id="placeholder-filled-point" xmlns="http://www.w3.org/2000/svg" viewBox="0 0 18.408 25">
  <defs>
    <style>
      .cls-1 {
        fill: #333;
      }
    </style>
  </defs>
  <path id="Path_9" data-name="Path 9" class="cls-1" d="M22.087,0a9.214,9.214,0,0,0-9.2,9.2,8.978,8.978,0,0,0,.8,3.757C15.989,18,20.4,23.313,21.7,24.822a.513.513,0,0,0,.776,0c1.3-1.509,5.709-6.825,8.011-11.861a8.974,8.974,0,0,0,.8-3.757A9.215,9.215,0,0,0,22.087,0Zm0,13.985A4.781,4.781,0,1,1,26.867,9.2,4.786,4.786,0,0,1,22.087,13.985Z" transform="translate(-12.883)"/>
</svg>
